{
  "name": "DIGITALMENU",
  "version": "1.1.1",
  "description": "Documentation",
  "title": "DIGITALMENU API Doc",
  "sampleUrl": "http://localhost:8080/api",
  "defaultVersion": "0.0.0",
  "apidoc": "0.3.0",
  "generator": {
    "name": "apidoc",
    "time": "2020-07-08T15:46:52.913Z",
    "url": "http://apidocjs.com",
    "version": "0.23.0"
  }
}
